[
   {
        "id":1,
        "img1":"https://cdn.syarah.com/online/posts/40636/0x683/orignal-1605458571-229.jpg" ,
        "img2":"https://cdn.syarah.com/online/posts/40636/0x683/orignal-1605458571-33.jpg",
        "img3":"https://cdn.syarah.com/online/posts/40636/0x683/orignal-1605458571-340.jpg",
        "img4":"https://cdn.syarah.com/online/posts/40636/0x683/orignal-1605458581-593.jpg",
        "img5":"https://cdn.syarah.com/online/posts/40636/0x683/orignal-1605458581-74.jpg",
        "img6":"https://cdn.syarah.com/online/posts/40636/0x683/orignal-1605458581-30.jpg",
        "img7":"https://cdn.syarah.com/online/posts/40636/0x683/orignal-1605458581-383.jpg",
        "img8":"https://cdn.syarah.com/online/posts/40636/0x683/orignal-1605458581-828.jpg"
    },
    {
            "id":2,
            "img1":"https://cdn.syarah.com/online/posts/40636/0x683/orignal-1605458571-229.jpg" ,
            "img2":"https://cdn.syarah.com/online/posts/40636/0x683/orignal-1605458571-33.jpg",
            "img3":"https://cdn.syarah.com/online/posts/40636/0x683/orignal-1605458571-340.jpg",
            "img4":"https://cdn.syarah.com/online/posts/40636/0x683/orignal-1605458581-593.jpg",
            "img5":"https://cdn.syarah.com/online/posts/40636/0x683/orignal-1605458581-74.jpg",
            "img6":"https://cdn.syarah.com/online/posts/40636/0x683/orignal-1605458581-30.jpg",
            "img7":"https://cdn.syarah.com/online/posts/40636/0x683/orignal-1605458581-383.jpg",
            "img8":"https://cdn.syarah.com/online/posts/40636/0x683/orignal-1605458581-828.jpg"
        
    }
]