<?xml version="1.0" encoding="utf-8"?>
<!-- Generator: Adobe Illustrator 25.0.0, SVG Export Plug-In . SVG Version: 6.00 Build 0)  -->
<svg version="1.1" id="Layer_1" xmlns="http://www.w3.org/2000/svg" xmlns:xlink="http://www.w3.org/1999/xlink" x="0px" y="0px"
	 viewBox="0 0 200 200" style="enable-background:new 0 0 200 200;" xml:space="preserve">
<style type="text/css">
	.st0{fill:#010101;}
</style>
<path class="st0" d="M183.5,46.1L183.5,46.1c-1.1-1.4-3.1-1.8-4.6-0.9l-48.7,28.1l12.2-30.9c0.8-1.8,0-4-1.8-4.8
	c-1.3-0.6-2.9-0.4-4,0.6l-29.8,25.4L98.4,3.1C98.1,1.3,96.6,0,94.7,0c-1.8,0-3.3,1.3-3.6,3L80.2,64.7L62.6,50
	c-1.5-1.3-3.8-1.1-5.1,0.4c-0.7,0.8-1,1.8-0.8,2.8l2.6,23.2L20.7,58.1c-1.9-0.8-4,0.1-4.8,2c-0.5,1.2-0.3,2.6,0.5,3.6l30.1,35
	l-20.3,8.9c-1.8,0.8-2.6,3-1.8,4.8c0.4,0.8,1,1.4,1.8,1.8l21.5,10.1l-14.9,17.9c-1.3,1.5-1.1,3.8,0.5,5.1c0.7,0.6,1.6,0.9,2.6,0.8
	l22.2-1.4l-26.9,45.4c-1,1.7-0.5,4,1.3,5c1.3,0.8,3,0.6,4.2-0.4l43.6-37.1l10.2,37.7c0.4,1.6,1.9,2.7,3.6,2.7
	c1.7,0.1,3.2-1.1,3.6-2.7l9.5-37.9l44.3,37.4c1.5,1.3,3.8,1.1,5.1-0.4c1-1.2,1.2-2.9,0.4-4.2l-27.2-45.8l22.7,2.5
	c2,0.2,3.8-1.2,4-3.2c0.1-1-0.2-2-0.8-2.7l-16.3-19.1l20.4-9.3c1.8-0.8,2.6-3,1.8-4.8c-0.4-0.8-1-1.4-1.8-1.8l-19.6-8.6l43.2-48.5
	C184.6,49.5,184.6,47.5,183.5,46.1z"/>
</svg>
