<?xml version="1.0" encoding="utf-8"?>
<!-- Generator: Adobe Illustrator 25.0.0, SVG Export Plug-In . SVG Version: 6.00 Build 0)  -->
<svg version="1.1" id="Layer_1" xmlns="http://www.w3.org/2000/svg" xmlns:xlink="http://www.w3.org/1999/xlink" x="0px" y="0px"
	 viewBox="0 0 200 200" style="enable-background:new 0 0 200 200;" xml:space="preserve">
<style type="text/css">
	.st0{fill:#010101;}
</style>
<g>
	<path class="st0" d="M144.9,86.2l5.9-3.4l19.9,8.5c5.3,2.3,11.5-0.2,13.8-5.5c2.3-5.3-0.2-11.5-5.5-13.8l-5.4-2.3l9.2-5.3
		c5-2.9,6.8-9.3,3.8-14.3c-2.9-5-9.3-6.8-14.3-3.8l-9.2,5.3l0.7-5.8c0.7-5.7-3.4-11-9.1-11.7s-11,3.4-11.7,9.1l-2.6,21.5L117.1,78
		c-2-1.6-4.3-2.9-6.6-3.8v-5.5V55v-7.6l17.3-13c4.6-3.5,5.5-10.1,2.1-14.7c-3.5-4.6-10.1-5.5-14.7-2.1l-4.7,3.5V10.5
		C110.5,4.7,105.8,0,100,0c-5.8,0-10.5,4.7-10.5,10.5v10.6l-4.7-3.5c-4.6-3.5-11.2-2.5-14.7,2.1s-2.5,11.2,2.1,14.7l17.3,13v26.8
		c-2.4,1-4.6,2.3-6.6,3.8L59.6,64.6L57,43.1c-0.7-5.8-5.9-9.8-11.7-9.1c-5.7,0.7-9.8,5.9-9.1,11.7l0.7,5.8l-9.2-5.3
		c-5-2.9-11.4-1.2-14.3,3.8c-2.9,5-1.2,11.4,3.8,14.3l9.2,5.3L21,72c-5.3,2.3-7.8,8.4-5.5,13.8s8.4,7.8,13.8,5.5l19.9-8.5l23.2,13.4
		c-0.4,2.5-0.4,5,0,7.7l-23.2,13.4l-19.9-8.5c-5.4-2.3-11.5,0.2-13.8,5.5c-2.3,5.4,0.2,11.5,5.5,13.8l5.4,2.3l-9.2,5.3
		c-5,2.9-6.7,9.3-3.8,14.3c2.9,5,9.3,6.8,14.3,3.8l9.2-5.3l-0.7,5.8c-0.4,2.8,0.4,5.5,2.1,7.7c5.7,7.3,17.6,4.1,18.7-5.2l2.6-21.5
		l23.2-13.4c2,1.6,4.3,2.9,6.6,3.8v26.8l-17.3,12.9c-4.6,3.5-5.5,10.1-2.1,14.7c3.5,4.6,10,5.6,14.7,2.1l4.7-3.5v10.6
		c0,5.8,4.7,10.5,10.5,10.5c5.8,0,10.5-4.7,10.5-10.5v-10.6l4.7,3.5c4.7,3.5,11.2,2.5,14.7-2.1c3.5-4.6,2.5-11.2-2.1-14.7l-17.3-13
		v-26.8c2.4-1,4.6-2.3,6.6-3.8l23.2,13.4l2.6,21.5c1.1,9.3,13,12.5,18.7,5.2c1.7-2.2,2.5-5,2.1-7.7l-0.7-5.8l9.2,5.3
		c5,2.9,11.4,1.2,14.3-3.8s1.2-11.4-3.8-14.3l-9.2-5.3l5.4-2.3c5.4-2.3,7.8-8.4,5.5-13.8c-2.3-5.3-8.4-7.8-13.8-5.5l-19.9,8.5
		l-23.2-13.4c0.4-2.5,0.4-5.1,0-7.7L133,93"/>
</g>
</svg>
